<svg xmlns="http://www.w3.org/2000/svg" xmlns:xlink="http://www.w3.org/1999/xlink" width="230" height="227.416" viewBox="0 0 230 227.416">
  <defs>
    <clipPath id="clip-path">
      <rect id="Retângulo_7489" data-name="Retângulo 7489" width="105.079" height="132.126" fill="none"/>
    </clipPath>
  </defs>
  <g id="Grupo_20035" data-name="Grupo 20035" transform="translate(-525 -9219.552)">
    <g id="Grupo_20014" data-name="Grupo 20014" transform="translate(0 1236.585)">
      <g id="Grupo_19990" data-name="Grupo 19990" transform="translate(0 1236.585)">
        <g id="Grupo_19987" data-name="Grupo 19987" transform="translate(0 618.292)">
          <g id="Grupo_19985" data-name="Grupo 19985">
            <g id="Grupo_19984" data-name="Grupo 19984" transform="translate(0 618.292)">
              <g id="Grupo_19982" data-name="Grupo 19982" transform="translate(0 618.292)">
                <g id="Grupo_19980" data-name="Grupo 19980" transform="translate(0 618.292)">
                  <g id="Grupo_19978" data-name="Grupo 19978" transform="translate(0 618.292)">
                    <g id="Grupo_19976" data-name="Grupo 19976" transform="translate(0 618.292)">
                      <g id="Grupo_19974" data-name="Grupo 19974" transform="translate(0 634.292)">
                        <g id="Grupo_19972" data-name="Grupo 19972" transform="translate(16095.5 835.098)">
                          <path id="Caminho_25795" data-name="Caminho 25795" d="M589.772,372.59l.041-.057c.02.017.037.036.057.053,15.156-.7,29.741-6.1,43.029-13.643-.231-.134.952-.636.951-.545,3.383-1.955,6.681-4.043,9.879-6.227a231.994,231.994,0,0,0,52.443-49.831c13.641-17.672,29.082-40.869,23.434-64.382-2.668-11.1-10.289-19.892-18.569-27.366-9.79-8.837-20.159-17.081-30.261-25.558-9.7-8.139-19.231-16.584-29.544-23.952-9.252-6.61-19.487-12.453-30.72-14.82a51.716,51.716,0,0,0-32.706,4.045c-10.565,4.894-19.69,12.5-28.161,20.372-16.872,15.678-33.619,32.828-44.1,53.585-1.573,3.115-4.1,7.041-5.346,10.3-7.312,14.781-10.142,28.334-9.234,43.723,1.313,22.255,11.784,43.065,26.571,59.439,15.37,17.02,36.338,31.074,59.413,34.286C577.765,372.124,586.79,372.724,589.772,372.59Z" transform="translate(-16061.305 1422.043)" fill="#291074"/>
                        </g>
                      </g>
                    </g>
                  </g>
                </g>
              </g>
            </g>
          </g>
        </g>
      </g>
    </g>
    <g id="Grupo_20023" data-name="Grupo 20023" transform="translate(582 9267.635)">
      <g id="Grupo_20020" data-name="Grupo 20020" clip-path="url(#clip-path)">
        <g id="Grupo_19949" data-name="Grupo 19949" transform="translate(0 -0.001)">
          <path id="Caminho_23512" data-name="Caminho 23512" d="M32.267,44.734a8.977,8.977,0,0,1-.666-3.4V39.651a9.007,9.007,0,0,1,8.991-9.02h75.018v-7.1H40.62A16.138,16.138,0,0,0,24.5,39.651v98.734a17.3,17.3,0,0,0,17.284,17.278H112.54a4.038,4.038,0,0,0,3.069-3.984V50.361H40.62a9.016,9.016,0,0,1-8.354-5.627M107.91,148.028H40.974A9.73,9.73,0,0,1,32.2,139.7V55.069a16.034,16.034,0,0,0,8.42,2.382H107.91Z" transform="translate(-24.504 -23.535)" fill="#fff"/>
          <path id="Caminho_23513" data-name="Caminho 23513" d="M81.281,27.273h-46.4a6.184,6.184,0,1,0-.354,12.364c.116,0,.235,0,.354,0h76.742v98.972h10.338V27.273Z" transform="translate(-16.883 -16.447)" fill="#fff"/>
          <path id="Caminho_23514" data-name="Caminho 23514" d="M50.774,51.513c.739-.191,1.492-.319,2.272-.472-.524-2.4-1.037-4.761-1.562-7.166a30.393,30.393,0,0,0-7.928,1.292,14.655,14.655,0,0,0-9.376,7.977,23.21,23.21,0,0,0-1.849,9.788q-.013,7.645-.006,15.3v.6H52.046V58.858H44.628a6.915,6.915,0,0,1,1.263-4.387,8.3,8.3,0,0,1,4.882-2.956" transform="translate(-9.672 15.061)" fill="#fff"/>
          <path id="Caminho_23515" data-name="Caminho 23515" d="M52.981,57.525c.44-3.051,2.353-4.8,5.14-5.726,1.032-.339,2.112-.533,3.2-.8-.522-2.367-1.034-4.738-1.556-7.122a31.209,31.209,0,0,0-7.111,1.049,15.244,15.244,0,0,0-9.2,6.389,19.869,19.869,0,0,0-2.819,10.628c-.078,5.442-.023,10.889-.029,16.339,0,.191.029.374.043.577H60.327V58.841H52.886c.038-.507.049-.916.1-1.315" transform="translate(6.036 15.061)" fill="#fff"/>
        </g>
      </g>
    </g>
  </g>
</svg>
