<svg xmlns="http://www.w3.org/2000/svg" width="426.729" height="423.332" viewBox="0 0 426.729 423.332">
  <g id="Group_19999" data-name="Group 19999" transform="translate(-37.75 -2639.355)">
    <g id="Group_19983" data-name="Group 19983" transform="translate(-99 -5)">
      <path id="Path_23382" data-name="Path 23382" d="M655.143,567.805a1.374,1.374,0,0,1,1.606-1.1,1.02,1.02,0,0,1,1.013,1.037,1.492,1.492,0,0,1-.062.342,130.849,130.849,0,0,0,16.715.306l.077-.105c.036.032.068.067.106.1,28.121-1.307,55.185-11.354,79.841-25.391-.428-.249-.861-.644-1.592-1.168.973-.474,1.428-.752,1.918-.92a1.079,1.079,0,0,1,1.35.615,1,1,0,0,1,.089.459c6.277-3.638,12.4-7.524,18.331-11.589,37.055-25.378,69.918-57.144,97.311-92.737,25.312-32.888,53.963-76.059,43.482-119.818-4.951-20.666-19.092-37.021-34.454-50.929-18.166-16.446-37.406-31.788-56.15-47.564-18-15.147-35.683-30.864-54.819-44.577-17.167-12.3-36.159-23.176-57-27.582-20.738-4.384-41.541-1.368-60.686,7.528-19.6,9.109-36.535,23.263-52.254,37.914-31.306,29.178-62.382,61.1-81.829,99.725a191.762,191.762,0,0,0-7.862,17.8c-14.444,24.714-20.876,54.1-19.191,82.737,2.437,41.417,21.866,80.146,49.3,110.618,28.518,31.675,67.426,57.831,110.242,63.808,1.508.21,3.013.388,4.515.543C655.144,567.838,655.14,567.822,655.143,567.805Z" transform="translate(-354.068 2499.162)" fill="#291074"/>
      <g id="iconfinder_020_215_book_read_history_bookmarks_education_journal_log_logbook_3_1275433" transform="translate(240.4 2777.893)">
        <path id="Path_23360" data-name="Path 23360" d="M103.8,177.212a3.636,3.636,0,0,1-3.636-3.636c0-12.063-8.562-18.179-25.45-18.179H5.636A3.636,3.636,0,0,1,2,151.762V13.606A3.636,3.636,0,0,1,5.636,9.97H20.179a3.636,3.636,0,1,1,0,7.271H9.272V148.127H74.714c14.072,0,24.085,4.248,29.086,12.008,5-7.76,15.013-12.008,29.086-12.008h65.443V17.242H187.421a3.636,3.636,0,0,1,0-7.271h14.543a3.636,3.636,0,0,1,3.636,3.636V151.762a3.636,3.636,0,0,1-3.636,3.636H132.886c-16.888,0-25.45,6.116-25.45,18.179A3.636,3.636,0,0,1,103.8,177.212Z" transform="translate(0 10.543)" fill="#fff"/>
        <path id="Path_23361" data-name="Path 23361" d="M108.8,6.97A18.179,18.179,0,0,0,90.621,25.148,18.179,18.179,0,0,0,72.443,6.97H7V145.127H61.536c16.064,0,29.086,5.751,29.086,21.814,0-16.064,13.022-21.814,29.086-21.814h54.535V6.97H108.8Z" transform="translate(13.178 2.635)" fill="none"/>
        <path id="Path_23362" data-name="Path 23362" d="M93.257,173.212a3.636,3.636,0,0,1-3.636-3.636c0-12.063-8.562-18.178-25.45-18.178H9.636A3.636,3.636,0,0,1,6,147.762V9.606A3.636,3.636,0,0,1,9.636,5.97H75.079a21.811,21.811,0,0,1,18.178,9.767A21.811,21.811,0,0,1,111.436,5.97h65.443a3.636,3.636,0,0,1,3.636,3.636V147.762a3.636,3.636,0,0,1-3.636,3.636H122.343c-16.888,0-25.45,6.116-25.45,18.178A3.636,3.636,0,0,1,93.257,173.212ZM13.272,144.127h50.9c14.072,0,24.085,4.248,29.086,12.008,5-7.76,15.013-12.008,29.086-12.008h50.9V13.242H111.436A14.559,14.559,0,0,0,96.893,27.784a3.636,3.636,0,0,1-7.271,0A14.559,14.559,0,0,0,75.079,13.242H13.272V144.127Z" transform="translate(10.543 0)" fill="#fff"/>
        <path id="Path_23363" data-name="Path 23363" d="M32.636,179.848A3.636,3.636,0,0,1,29,176.212V12.606a3.636,3.636,0,0,1,7.271,0V176.212A3.636,3.636,0,0,1,32.636,179.848Z" transform="translate(71.164 7.907)" fill="#fff"/>
        <path id="Path_23365" data-name="Path 23365" d="M65.45,64.141a3.637,3.637,0,0,1-2.908-1.454l-8-10.666-8,10.666A3.635,3.635,0,0,1,40,60.506V9.606A3.636,3.636,0,0,1,43.636,5.97H65.45a3.636,3.636,0,0,1,3.636,3.636v50.9a3.634,3.634,0,0,1-3.636,3.636ZM54.543,42.327a3.63,3.63,0,0,1,2.908,1.454L61.815,49.6V13.242H47.272V49.6l4.364-5.817A3.63,3.63,0,0,1,54.543,42.327Z" transform="translate(100.157 0)" fill="#fff"/>
        <path id="Path_23366" data-name="Path 23366" d="M30.543,21.242H19.636a3.636,3.636,0,1,1,0-7.271H30.543a3.636,3.636,0,1,1,0,7.271Z" transform="translate(36.9 21.086)" fill="#fff"/>
        <path id="Path_23367" data-name="Path 23367" d="M55.629,27.242H15.636a3.636,3.636,0,0,1,0-7.271H55.629a3.636,3.636,0,1,1,0,7.271Z" transform="translate(26.357 36.9)" fill="#fff"/>
        <path id="Path_23368" data-name="Path 23368" d="M55.629,33.242H15.636a3.636,3.636,0,0,1,0-7.271H55.629a3.636,3.636,0,1,1,0,7.271Z" transform="translate(26.357 52.714)" fill="#fff"/>
        <path id="Path_23369" data-name="Path 23369" d="M55.629,39.242H15.636a3.636,3.636,0,0,1,0-7.271H55.629a3.636,3.636,0,1,1,0,7.271Z" transform="translate(26.357 68.528)" fill="#fff"/>
        <path id="Path_23370" data-name="Path 23370" d="M55.629,45.242H15.636a3.636,3.636,0,1,1,0-7.271H55.629a3.636,3.636,0,1,1,0,7.271Z" transform="translate(26.357 84.342)" fill="#fff"/>
        <path id="Path_23371" data-name="Path 23371" d="M78.629,33.242H38.636a3.636,3.636,0,1,1,0-7.271H78.629a3.636,3.636,0,0,1,0,7.271Z" transform="translate(86.978 52.714)" fill="#fff"/>
        <path id="Path_23372" data-name="Path 23372" d="M78.629,39.242H38.636a3.636,3.636,0,1,1,0-7.271H78.629a3.636,3.636,0,0,1,0,7.271Z" transform="translate(86.978 68.528)" fill="#fff"/>
        <path id="Path_23373" data-name="Path 23373" d="M78.629,45.242H38.636a3.636,3.636,0,1,1,0-7.271H78.629a3.636,3.636,0,0,1,0,7.271Z" transform="translate(86.978 84.342)" fill="#fff"/>
      </g>
    </g>
  </g>
</svg>
