<svg xmlns="http://www.w3.org/2000/svg" xmlns:xlink="http://www.w3.org/1999/xlink" width="426.729" height="423.333" viewBox="0 0 426.729 423.333">
  <defs>
    <clipPath id="clip-path">
      <rect id="Rectangle_3022" data-name="Rectangle 3022" width="176" height="226" transform="translate(0 0)" fill="none" stroke="#fff" stroke-width="10"/>
    </clipPath>
  </defs>
  <g id="Group_20007" data-name="Group 20007" transform="translate(-138 -7347.355)">
    <g id="Group_19992" data-name="Group 19992">
      <path id="Path_23453" data-name="Path 23453" d="M655.143,567.805a1.374,1.374,0,0,1,1.606-1.1,1.02,1.02,0,0,1,1.013,1.037,1.492,1.492,0,0,1-.062.342,130.849,130.849,0,0,0,16.715.306l.077-.105c.036.032.068.067.106.1,28.121-1.307,55.185-11.354,79.841-25.391-.428-.249-.861-.644-1.592-1.168.973-.474,1.428-.752,1.918-.92a1.079,1.079,0,0,1,1.35.615,1,1,0,0,1,.089.459c6.277-3.638,12.4-7.524,18.331-11.589,37.055-25.378,69.918-57.144,97.311-92.737,25.312-32.888,53.963-76.059,43.482-119.818-4.951-20.666-19.092-37.021-34.454-50.929-18.166-16.446-37.406-31.788-56.15-47.564-18-15.147-35.683-30.864-54.819-44.577-17.167-12.3-36.159-23.176-57-27.582-20.738-4.384-41.541-1.368-60.686,7.528-19.6,9.109-36.535,23.263-52.254,37.914-31.306,29.178-62.382,61.1-81.829,99.725a191.762,191.762,0,0,0-7.862,17.8c-14.444,24.714-20.876,54.1-19.191,82.737,2.437,41.417,21.866,80.146,49.3,110.618,28.518,31.675,67.426,57.831,110.242,63.808,1.508.21,3.013.388,4.515.543C655.144,567.838,655.14,567.822,655.143,567.805Z" transform="translate(-352.818 7202.162)" fill="#74b959"/>
      <g id="Group_19943" data-name="Group 19943" transform="translate(242.008 7450.23)">
        <g id="Group_19942" data-name="Group 19942" transform="translate(-0.008 -0.231)" clip-path="url(#clip-path)">
          <path id="Path_23488" data-name="Path 23488" d="M13,16V143.724a14.736,14.736,0,0,0,14.737,14.737h93.336V30.737H27.737" transform="translate(50.871 62.615)" fill="none" stroke="#fff" stroke-linecap="round" stroke-linejoin="round" stroke-width="10"/>
          <path id="Path_23489" data-name="Path 23489" d="M109.336,27.737V13H16" transform="translate(62.608 50.877)" fill="none" stroke="#fff" stroke-linecap="round" stroke-linejoin="round" stroke-width="10"/>
          <path id="Path_23490" data-name="Path 23490" d="M27.737,42.475a14.737,14.737,0,1,1,0-29.475" transform="translate(50.871 50.877)" fill="none" stroke="#fff" stroke-linecap="round" stroke-linejoin="round" stroke-width="10"/>
          <path id="Path_23491" data-name="Path 23491" d="M4,7H97.336V36.475" transform="translate(15.659 27.403)" fill="none" stroke="#fff" stroke-linecap="round" stroke-linejoin="round" stroke-width="10"/>
          <path id="Path_23492" data-name="Path 23492" d="M1,4V131.723a14.718,14.718,0,0,0,14.737,14.737H59.949" transform="translate(3.922 15.665)" fill="none" stroke="#fff" stroke-linecap="round" stroke-linejoin="round" stroke-width="10"/>
          <path id="Path_23493" data-name="Path 23493" d="M97.336,15.737V1H4" transform="translate(15.659 3.928)" fill="none" stroke="#fff" stroke-linecap="round" stroke-linejoin="round" stroke-width="10"/>
          <path id="Path_23494" data-name="Path 23494" d="M15.737,30.475A14.737,14.737,0,1,1,15.737,1" transform="translate(3.922 3.928)" fill="none" stroke="#fff" stroke-linecap="round" stroke-linejoin="round" stroke-width="10"/>
          <path id="Path_23495" data-name="Path 23495" d="M19,84.949,43.562,26,68.124,84.949" transform="translate(74.346 101.739)" fill="none" stroke="#fff" stroke-linecap="round" stroke-linejoin="round" stroke-width="10"/>
          <line id="Line_154" data-name="Line 154" x1="28.689" transform="translate(103.563 162.126)" fill="none" stroke="#fff" stroke-linecap="round" stroke-linejoin="round" stroke-width="10"/>
          <path id="Path_23496" data-name="Path 23496" d="M36.475,56.517H7L33.429,22.13l3.046-3.93" transform="translate(27.396 71.222)" fill="none" stroke="#fff" stroke-linecap="round" stroke-linejoin="round" stroke-width="10"/>
          <path id="Path_23497" data-name="Path 23497" d="M56.124,13H7" transform="translate(27.396 50.877)" fill="none" stroke="#fff" stroke-linecap="round" stroke-linejoin="round" stroke-width="10"/>
          <path id="Path_23498" data-name="Path 23498" d="M9.08,19H28.337" transform="translate(35.535 74.352)" fill="none" stroke="#fff" stroke-linecap="round" stroke-linejoin="round" stroke-width="10"/>
        </g>
      </g>
    </g>
  </g>
</svg>
