<svg xmlns="http://www.w3.org/2000/svg" width="230" height="227.416" viewBox="0 0 230 227.416">
  <g id="Grupo_21541" data-name="Grupo 21541" transform="translate(-912 -4975)">
    <g id="Grupo_20667" data-name="Grupo 20667">
      <g id="Grupo_20074" data-name="Grupo 20074" transform="translate(774 2752.416)">
        <path id="Caminho_25821" data-name="Caminho 25821" d="M589.772,372.59l.041-.057c.02.017.037.036.057.053,15.156-.7,29.741-6.1,43.029-13.643-.231-.134.952-.636.951-.545,3.383-1.955,6.681-4.043,9.879-6.227a231.994,231.994,0,0,0,52.443-49.831c13.641-17.672,29.082-40.869,23.434-64.382-2.668-11.1-10.289-19.892-18.569-27.366-9.79-8.837-20.159-17.081-30.261-25.558-9.7-8.139-19.231-16.584-29.544-23.952-9.252-6.61-19.487-12.453-30.72-14.82a51.716,51.716,0,0,0-32.706,4.045c-10.565,4.894-19.69,12.5-28.161,20.372-16.872,15.678-33.619,32.828-44.1,53.585-1.573,3.115-4.1,7.041-5.346,10.3-7.312,14.781-10.142,28.334-9.234,43.723,1.313,22.255,11.784,43.065,26.571,59.439,15.37,17.02,36.338,31.074,59.413,34.286C577.765,372.124,586.79,372.724,589.772,372.59Z" transform="translate(-352.805 2077.391)" fill="#956cc0"/>
      </g>
      <g id="Grupo_20652" data-name="Grupo 20652" transform="translate(959.339 5027.707)">
        <g id="Grupo_20630" data-name="Grupo 20630" transform="translate(30.805 17.195)">
          <path id="Caminho_26422" data-name="Caminho 26422" d="M24.172,17.253A7.9,7.9,0,0,1,15.919,9h4.127a3.756,3.756,0,0,0,4.127,4.127A3.792,3.792,0,0,0,28.3,9h4.127A7.9,7.9,0,0,1,24.172,17.253Z" transform="translate(-15.919 -9)" fill="#fff"/>
        </g>
        <g id="Grupo_20631" data-name="Grupo 20631" transform="translate(36.995 1.293)">
          <path id="Caminho_26423" data-name="Caminho 26423" d="M23.046,19.258H18.919c0-12.863,4.246-17.482,4.731-17.965l2.918,2.918L25.109,2.752l1.484,1.434C26.557,4.223,23.046,8.116,23.046,19.258Z" transform="translate(-18.919 -1.293)" fill="#fff"/>
        </g>
        <g id="Grupo_20632" data-name="Grupo 20632" transform="translate(1.919 8.942)">
          <path id="Caminho_26424" data-name="Caminho 26424" d="M39.058,110.228c-4.931,0-6.776-2.323-7.911-4.952-.852-.586-3.287-2.012-5.286-3.182a119.282,119.282,0,0,1-10.789-6.759C3.415,86.007,1.919,75.239,1.919,66.9A38.75,38.75,0,0,1,6.271,49.456c.2-.388.572-1.085,1.073-2.02,2.583-4.812,9.452-17.6,11.144-24.368,1.287-5.144,3.01-10.339,6.893-13.484C28.779,6.834,32.4,5,39.058,5S49.338,6.834,52.736,9.587c3.881,3.144,5.606,8.34,6.893,13.484,2.084,8.336,9.334,22.713,10.153,24.324l-3.677,1.869c-.842-1.655-8.286-16.416-10.48-25.195-1.112-4.448-2.546-8.895-5.486-11.276-2.868-2.323-5.6-3.666-11.082-3.666s-8.214,1.343-11.082,3.666c-2.94,2.381-4.374,6.827-5.486,11.276-1.818,7.269-8.61,19.919-11.513,25.321-.479.893-.84,1.562-1.032,1.935A34.665,34.665,0,0,0,6.046,66.9c0,7.876,1.378,17.03,11.606,25.211a120.275,120.275,0,0,0,10.3,6.421c6.1,3.567,6.479,3.834,6.84,4.748.739,1.853,1.263,2.823,4.271,2.823ZM30.952,104.8l0,.008Z" transform="translate(-1.919 -5)" fill="#fff"/>
        </g>
        <g id="Grupo_20633" data-name="Grupo 20633" transform="translate(32.791 35.761)">
          <path id="Caminho_26425" data-name="Caminho 26425" d="M58.206,110.85c-7.742,0-22.057-3.407-24.807-4.081-1.591.258-6.277.658-9.65-2.715-4.089-4.092-3.25-9.669-2.767-11.676C19.21,87.485,9.545,58.013,28.045,43.2c4.219-3.38,9.988-6.274,17.15-8.608.524-.171,1.537-.462,2.891-.852,5.806-1.669,19.4-5.577,25.558-9.272.689-.415,1.411-.873,2.156-1.343,4.112-2.606,8.761-5.585,13.455-5.067,4.6.481,8.68,1.824,13.647,6.8,5.043,5.051,6.388,9.07,6.854,13.552.491,4.686-2.492,9.4-5.125,13.562-.472.747-.931,1.471-1.343,2.16-3.681,6.14-7.583,19.721-9.25,25.521-.4,1.384-.7,2.418-.869,2.951l-.107.328C87.06,101.454,75.334,110.85,58.206,110.85Zm-24.739-8.309.491.12c.163.039,16.35,4.063,24.248,4.063,22.81,0,28.919-18.869,30.927-25.067l.109-.336c.167-.51.448-1.494.827-2.81,1.855-6.46,5.717-19.9,9.677-26.505.429-.716.9-1.467,1.395-2.243,2.274-3.592,4.851-7.665,4.508-10.927-.4-3.811-1.451-6.84-5.67-11.063-4.141-4.147-7.226-5.2-11.158-5.612-3.256-.322-7.271,2.2-10.816,4.451-.774.489-1.525.966-2.241,1.4-6.619,3.974-20.074,7.843-26.54,9.7-1.29.371-2.253.646-2.755.811-6.687,2.177-12.019,4.836-15.848,7.9-17.41,13.942-5.674,44.8-5.554,45.106l.27.7-.235.708c-.012.041-1.587,5.055,1.564,8.208,2.383,2.383,6.279,1.525,6.318,1.514Z" transform="translate(-16.881 -17.998)" fill="#333"/>
        </g>
        <g id="Grupo_20634" data-name="Grupo 20634" transform="translate(41.028 43.997)">
          <path id="Caminho_26426" data-name="Caminho 26426" d="M25.09,94.224c2.063-2.063.4-4.168,0-6.192-2.063-10.319-10.312-30.956,4.125-43.34,3.347-2.872,8.241-4.125,14.437-6.192s21.483-6.621,28.872-10.319c4.125-2.063,8.249-6.192,12.374-6.192,2.063,0,4.611.485,8.249,4.127s4.125,5.464,4.125,8.255c0,4.127-4.125,8.255-6.188,12.382C87.4,54.124,80.77,75.646,80.77,75.646c-3.087,9.535-9.054,22.7-26.811,22.7-6.13,0-18.3-3.031-22.686-4.127C31.275,94.224,27.151,92.161,25.09,94.224Z" transform="translate(-20.874 -21.99)" fill="#f9ba48"/>
        </g>
        <g id="Grupo_20635" data-name="Grupo 20635" transform="translate(60.736 66.947)">
          <path id="Caminho_26427" data-name="Caminho 26427" d="M44.364,66.91a27.926,27.926,0,0,1-6.027-.821l-1.108-.235a9.478,9.478,0,0,0-2.571-.309,2.064,2.064,0,0,1-2.864-2.866,9.162,9.162,0,0,0-.289-2.453L31.246,59c-.829-3.784-2.216-10.116,2.864-15.2,1.254-1.254,3.578-2.22,6.792-3.559a59.78,59.78,0,0,0,10.03-4.952c.448-.3,4.471-2.9,7.907-1.985a5.06,5.06,0,0,1,3,2.193,5.065,5.065,0,0,1,2.191,3c.91,3.425-1.686,7.455-1.985,7.9a59.857,59.857,0,0,0-4.954,10.028c-1.335,3.215-2.3,5.538-3.557,6.792A12.436,12.436,0,0,1,44.364,66.91Zm-8.49-5.451a20.4,20.4,0,0,1,2.061.326c.475.1.871.184,1.285.274,3.526.772,7.913,1.733,11.4-1.752.677-.677,1.688-3.107,2.666-5.459a62.94,62.94,0,0,1,5.33-10.733c.782-1.184,1.743-3.386,1.428-4.56a1.037,1.037,0,0,0-.635-.7,2.067,2.067,0,0,1-.922-.922,1.039,1.039,0,0,0-.706-.638c-1.29-.34-3.671.84-4.556,1.43a62.788,62.788,0,0,1-10.733,5.33c-2.35.978-4.781,1.989-5.459,2.666-3.485,3.485-2.523,7.871-1.752,11.4.091.415.177.811.252,1.18A21.053,21.053,0,0,1,35.874,61.459Z" transform="translate(-30.425 -33.113)" fill="#333"/>
        </g>
        <g id="Grupo_20636" data-name="Grupo 20636" transform="translate(68.548 87.951)">
          <rect id="Retângulo_7639" data-name="Retângulo 7639" width="2.917" height="4.127" transform="translate(0 2.063) rotate(-45)" fill="#333"/>
        </g>
        <g id="Grupo_20637" data-name="Grupo 20637" transform="translate(70.611 79.698)">
          <rect id="Retângulo_7640" data-name="Retângulo 7640" width="2.917" height="4.127" transform="translate(0 2.063) rotate(-45)" fill="#fff"/>
        </g>
        <g id="Grupo_20638" data-name="Grupo 20638" transform="translate(74.738 87.951)">
          <rect id="Retângulo_7641" data-name="Retângulo 7641" width="2.917" height="4.127" transform="translate(0 2.063) rotate(-45)" fill="#fff"/>
        </g>
        <g id="Grupo_20639" data-name="Grupo 20639" transform="translate(78.864 81.762)">
          <rect id="Retângulo_7642" data-name="Retângulo 7642" width="2.917" height="4.127" transform="translate(0 2.063) rotate(-45)" fill="#fff"/>
        </g>
        <g id="Grupo_20640" data-name="Grupo 20640" transform="translate(78.864 75.572)">
          <rect id="Retângulo_7643" data-name="Retângulo 7643" width="2.917" height="4.127" transform="translate(0 2.063) rotate(-45)" fill="#fff"/>
        </g>
        <g id="Grupo_20641" data-name="Grupo 20641" transform="translate(30.805 17.195)">
          <path id="Caminho_26428" data-name="Caminho 26428" d="M24.172,17.253A7.9,7.9,0,0,1,15.919,9h4.127a3.756,3.756,0,0,0,4.127,4.127A3.792,3.792,0,0,0,28.3,9h4.127A7.9,7.9,0,0,1,24.172,17.253Z" transform="translate(-15.919 -9)" fill="#fff"/>
        </g>
        <g id="Grupo_20642" data-name="Grupo 20642" transform="translate(36.995 1.293)">
          <path id="Caminho_26429" data-name="Caminho 26429" d="M23.046,19.258H18.919c0-12.863,4.246-17.482,4.731-17.965l2.918,2.918L25.109,2.752l1.484,1.434C26.557,4.223,23.046,8.116,23.046,19.258Z" transform="translate(-18.919 -1.293)" fill="#fff"/>
        </g>
        <g id="Grupo_20643" data-name="Grupo 20643" transform="translate(1.919 8.942)">
          <path id="Caminho_26430" data-name="Caminho 26430" d="M39.058,110.228c-4.931,0-6.776-2.323-7.911-4.952-.852-.586-3.287-2.012-5.286-3.182a119.282,119.282,0,0,1-10.789-6.759C3.415,86.007,1.919,75.239,1.919,66.9A38.75,38.75,0,0,1,6.271,49.456c.2-.388.572-1.085,1.073-2.02,2.583-4.812,9.452-17.6,11.144-24.368,1.287-5.144,3.01-10.339,6.893-13.484C28.779,6.834,32.4,5,39.058,5S49.338,6.834,52.736,9.587c3.881,3.144,5.606,8.34,6.893,13.484,2.084,8.336,9.334,22.713,10.153,24.324l-3.677,1.869c-.842-1.655-8.286-16.416-10.48-25.195-1.112-4.448-2.546-8.895-5.486-11.276-2.868-2.323-5.6-3.666-11.082-3.666s-8.214,1.343-11.082,3.666c-2.94,2.381-4.374,6.827-5.486,11.276-1.818,7.269-8.61,19.919-11.513,25.321-.479.893-.84,1.562-1.032,1.935A34.665,34.665,0,0,0,6.046,66.9c0,7.876,1.378,17.03,11.606,25.211a120.275,120.275,0,0,0,10.3,6.421c6.1,3.567,6.479,3.834,6.84,4.748.739,1.853,1.263,2.823,4.271,2.823ZM30.952,104.8l0,.008Z" transform="translate(-1.919 -5)" fill="#fff"/>
        </g>
        <g id="Grupo_20644" data-name="Grupo 20644" transform="translate(32.791 35.761)">
          <path id="Caminho_26431" data-name="Caminho 26431" d="M58.206,110.85c-7.742,0-22.057-3.407-24.807-4.081-1.591.258-6.277.658-9.65-2.715-4.089-4.092-3.25-9.669-2.767-11.676C19.21,87.485,9.545,58.013,28.045,43.2c4.219-3.38,9.988-6.274,17.15-8.608.524-.171,1.537-.462,2.891-.852,5.806-1.669,19.4-5.577,25.558-9.272.689-.415,1.411-.873,2.156-1.343,4.112-2.606,8.761-5.585,13.455-5.067,4.6.481,8.68,1.824,13.647,6.8,5.043,5.051,6.388,9.07,6.854,13.552.491,4.686-2.492,9.4-5.125,13.562-.472.747-.931,1.471-1.343,2.16-3.681,6.14-7.583,19.721-9.25,25.521-.4,1.384-.7,2.418-.869,2.951l-.107.328C87.06,101.454,75.334,110.85,58.206,110.85Zm-24.739-8.309.491.12c.163.039,16.35,4.063,24.248,4.063,22.81,0,28.919-18.869,30.927-25.067l.109-.336c.167-.51.448-1.494.827-2.81,1.855-6.46,5.717-19.9,9.677-26.505.429-.716.9-1.467,1.395-2.243,2.274-3.592,4.851-7.665,4.508-10.927-.4-3.811-1.451-6.84-5.67-11.063-4.141-4.147-7.226-5.2-11.158-5.612-3.256-.322-7.271,2.2-10.816,4.451-.774.489-1.525.966-2.241,1.4-6.619,3.974-20.074,7.843-26.54,9.7-1.29.371-2.253.646-2.755.811-6.687,2.177-12.019,4.836-15.848,7.9-17.41,13.942-5.674,44.8-5.554,45.106l.27.7-.235.708c-.012.041-1.587,5.055,1.564,8.208,2.383,2.383,6.279,1.525,6.318,1.514Z" transform="translate(-16.881 -17.998)" fill="#fff"/>
        </g>
        <g id="Grupo_20645" data-name="Grupo 20645" transform="translate(41.028 43.997)">
          <path id="Caminho_26432" data-name="Caminho 26432" d="M25.09,94.224c2.063-2.063.4-4.168,0-6.192-2.063-10.319-10.312-30.956,4.125-43.34,3.347-2.872,8.241-4.125,14.437-6.192s21.483-6.621,28.872-10.319c4.125-2.063,8.249-6.192,12.374-6.192,2.063,0,4.611.485,8.249,4.127s4.125,5.464,4.125,8.255c0,4.127-4.125,8.255-6.188,12.382C87.4,54.124,80.77,75.646,80.77,75.646c-3.087,9.535-9.054,22.7-26.811,22.7-6.13,0-18.3-3.031-22.686-4.127C31.275,94.224,27.151,92.161,25.09,94.224Z" transform="translate(-20.874 -21.99)" fill="#f4aa25"/>
        </g>
        <g id="Grupo_20646" data-name="Grupo 20646" transform="translate(60.736 66.947)">
          <path id="Caminho_26433" data-name="Caminho 26433" d="M44.364,66.91a27.926,27.926,0,0,1-6.027-.821l-1.108-.235a9.478,9.478,0,0,0-2.571-.309,2.064,2.064,0,0,1-2.864-2.866,9.162,9.162,0,0,0-.289-2.453L31.246,59c-.829-3.784-2.216-10.116,2.864-15.2,1.254-1.254,3.578-2.22,6.792-3.559a59.78,59.78,0,0,0,10.03-4.952c.448-.3,4.471-2.9,7.907-1.985a5.06,5.06,0,0,1,3,2.193,5.065,5.065,0,0,1,2.191,3c.91,3.425-1.686,7.455-1.985,7.9a59.857,59.857,0,0,0-4.954,10.028c-1.335,3.215-2.3,5.538-3.557,6.792A12.436,12.436,0,0,1,44.364,66.91Zm-8.49-5.451a20.4,20.4,0,0,1,2.061.326c.475.1.871.184,1.285.274,3.526.772,7.913,1.733,11.4-1.752.677-.677,1.688-3.107,2.666-5.459a62.94,62.94,0,0,1,5.33-10.733c.782-1.184,1.743-3.386,1.428-4.56a1.037,1.037,0,0,0-.635-.7,2.067,2.067,0,0,1-.922-.922,1.039,1.039,0,0,0-.706-.638c-1.29-.34-3.671.84-4.556,1.43a62.788,62.788,0,0,1-10.733,5.33c-2.35.978-4.781,1.989-5.459,2.666-3.485,3.485-2.523,7.871-1.752,11.4.091.415.177.811.252,1.18A21.053,21.053,0,0,1,35.874,61.459Z" transform="translate(-30.425 -33.113)" fill="#fff"/>
        </g>
        <g id="Grupo_20647" data-name="Grupo 20647" transform="translate(68.548 87.951)">
          <rect id="Retângulo_7644" data-name="Retângulo 7644" width="2.917" height="4.127" transform="translate(0 2.063) rotate(-45)" fill="#fff"/>
        </g>
        <g id="Grupo_20648" data-name="Grupo 20648" transform="translate(70.611 79.698)">
          <rect id="Retângulo_7645" data-name="Retângulo 7645" width="2.917" height="4.127" transform="translate(0 2.063) rotate(-45)" fill="#fff"/>
        </g>
        <g id="Grupo_20649" data-name="Grupo 20649" transform="translate(74.738 87.951)">
          <rect id="Retângulo_7646" data-name="Retângulo 7646" width="2.917" height="4.127" transform="translate(0 2.063) rotate(-45)" fill="#fff"/>
        </g>
        <g id="Grupo_20650" data-name="Grupo 20650" transform="translate(78.864 81.762)">
          <rect id="Retângulo_7647" data-name="Retângulo 7647" width="2.917" height="4.127" transform="translate(0 2.063) rotate(-45)" fill="#fff"/>
        </g>
        <g id="Grupo_20651" data-name="Grupo 20651" transform="translate(78.864 75.572)">
          <rect id="Retângulo_7648" data-name="Retângulo 7648" width="2.917" height="4.127" transform="translate(0 2.063) rotate(-45)" fill="#fff"/>
        </g>
      </g>
    </g>
  </g>
</svg>
